Accessing course data
…
## Accessing data through RSocrata

``` r
library(tidyverse)
library("RSocrata")

df = read.socrata(url = "https://data.cdc.gov/resource/g653-rqe2.json")

tibble::as_tibble(df)
```

```
## # A tibble: 202,242 × 4
##    key_plot_id                                       date       pcr_conc_lin       normalization  
##    <chr>                                             <chr>      <chr>              <chr>          
##  1 CDC_VERILY_ak_1491_Treatment plant_raw wastewater 2024-07-09 261075460.60484985 flow-population
##  2 CDC_VERILY_ak_1491_Treatment plant_raw wastewater 2024-07-02 75762462.6298236   flow-population
##  3 CDC_VERILY_ak_1491_Treatment plant_raw wastewater 2024-06-27 200986510.59238467 flow-population
##  4 CDC_VERILY_ak_1491_Treatment plant_raw wastewater 2024-06-25 203876334.5366082  flow-population
##  5 CDC_VERILY_ak_1491_Treatment plant_raw wastewater 2024-06-20 266107548.69799742 flow-population
##  6 CDC_VERILY_ak_1491_Treatment plant_raw wastewater 2024-06-18 143488128.93269265 flow-population
##  7 CDC_VERILY_ak_1491_Treatment plant_raw wastewater 2024-06-13 87356382.31291056  flow-population
##  8 CDC_VERILY_ak_1491_Treatment plant_raw wastewater 2024-06-11 192885705.01687986 flow-population
##  9 CDC_VERILY_ak_1491_Treatment plant_raw wastewater 2024-06-06 172078700.71095642 flow-population
## 10 CDC_VERILY_ak_1491_Treatment plant_raw wastewater 2024-06-04 133819845.56312422 flow-population
## # ℹ 202,232 more rows
```
…
---

## Example query

``` r
df = read.socrata(
      "https://data.cdc.gov/resource/g653-rqe2.json?key_plot_id=NWSS_wv_2558_Treatment plant_raw wastewater"
                  )

tibble::as_tibble(df)
```

```
## # A tibble: 1,006 × 4
##    key_plot_id                                 date       pcr_conc_lin       normalization  
##    <chr>                                       <chr>      <chr>              <chr>          
##  1 NWSS_wv_2558_Treatment plant_raw wastewater 2024-06-16 100976425.36819908 flow-population
##  2 NWSS_wv_2558_Treatment plant_raw wastewater 2024-06-15 36693803.39821172  flow-population
##  3 NWSS_wv_2558_Treatment plant_raw wastewater 2024-06-14 72412878.28520662  flow-population
##  4 NWSS_wv_2558_Treatment plant_raw wastewater 2024-06-12 58113474.08466649  flow-population
##  5 NWSS_wv_2558_Treatment plant_raw wastewater 2024-06-11 46608112.37511601  flow-population
##  6 NWSS_wv_2558_Treatment plant_raw wastewater 2024-06-10 65282077.04464546  flow-population
##  7 NWSS_wv_2558_Treatment plant_raw wastewater 2024-06-09 83258938.74251425  flow-population
##  8 NWSS_wv_2558_Treatment plant_raw wastewater 2024-06-08 29597111.695857204 flow-population
##  9 NWSS_wv_2558_Treatment plant_raw wastewater 2024-06-05 49155438.039434046 flow-population
## 10 NWSS_wv_2558_Treatment plant_raw wastewater 2024-06-04 961584.6527892718  flow-population
## # ℹ 996 more rows
```
…
## Another example query

``` r
df = read.socrata(
    "https://data.cdc.gov/resource/g653-rqe2.json?$where=date>'2023-12-31'"
                  )

as_tibble(df) %>%
  arrange(date)
```

```
## # A tibble: 65,173 × 4
##    key_plot_id                                          date       pcr_conc_lin       normalization  
##    <chr>                                                <chr>      <chr>              <chr>          
##  1 CDC_VERILY_nh_2519_Treatment plant_post grit removal 2024-01-01 86786699.10745762  flow-population
##  2 CDC_VERILY_nv_2592_Treatment plant_post grit removal 2024-01-01 33368854.856204804 flow-population
##  3 CDC_VERILY_tn_2514_Treatment plant_post grit removal 2024-01-01 119797769.43506595 flow-population
##  4 NWSS_az_1382_Treatment plant_raw wastewater          2024-01-01 153059025.90843776 flow-population
##  5 NWSS_az_1383_Treatment plant_raw wastewater          2024-01-01 2558925.440979074  flow-population
##  6 NWSS_ca_215_Treatment plant_raw wastewater           2024-01-01 182463665.31539977 flow-population
##  7 NWSS_de_1186_Treatment plant_raw wastewater          2024-01-01 729260669.1919992  flow-population
##  8 NWSS_de_1191_Treatment plant_raw wastewater          2024-01-01 38983573.45440007  flow-population
##  9 NWSS_ga_2708_Treatment plant_raw wastewater          2024-01-01 211667128.65656376 flow-population
## 10 NWSS_ga_2716_Treatment plant_raw wastewater          2024-01-01 93216122.39722809  flow-population
## # ℹ 65,163 more rows
```
…
